Capítulo4 Poder Cuantitativo en Acción | A Minimal Book Example
…
            A Minimal Book Example

Capítulo4 Poder Cuantitativo en Acción

Revisaremos algunos ejemplos, para ello utilizaremos la base de datos FANG, de datos que consta de los precios de las acciones de FB, AMZN, NFLX y GOOG desde principios de 2013 hasta finales del 2016.

data("FANG")
FANG

## # A tibble: 4,032 × 8
##    symbol date        open  high   low close    volume adjusted
##    <chr>  <date>     <dbl> <dbl> <dbl> <dbl>     <dbl>    <dbl>
##  1 FB     2013-01-02  27.4  28.2  27.4  28    69846400     28  
##  2 FB     2013-01-03  27.9  28.5  27.6  27.8  63140600     27.8
##  3 FB     2013-01-04  28.0  28.9  27.8  28.8  72715400     28.8
##  4 FB     2013-01-07  28.7  29.8  28.6  29.4  83781800     29.4
##  5 FB     2013-01-08  29.5  29.6  28.9  29.1  45871300     29.1
##  6 FB     2013-01-09  29.7  30.6  29.5  30.6 104787700     30.6
##  7 FB     2013-01-10  30.6  31.5  30.3  31.3  95316400     31.3
##  8 FB     2013-01-11  31.3  32.0  31.1  31.7  89598000     31.7
##  9 FB     2013-01-14  32.1  32.2  30.6  31.0  98892800     31.0
## 10 FB     2013-01-15  30.6  31.7  29.9  30.1 173242600     30.1
## # ℹ 4,022 more rows
…
4.2 Ejemplo 2: utilice xts to.period para cambiar la periodicidad de diaria a mensual

La función xts::to.period se utiliza para convertir la periodicidad de un nivel inferior a un nivel superior (ej: meses a años). Dado que se busca una estructura que tenga una escala de tiempo diferente a la de entrada, se debe hacer una transformación. Utilizamos tq_transmute(), pasamos las columnas “open”, “high”, “low”, “close” y “volume”, y usamos el periodo “months”.

FANG |>  group_by(symbol) |> tq_transmute(select = open:volume,
                                mutate_fun = to.period,
                                period = "months")

## # A tibble: 192 × 7
## # Groups:   symbol [4]
##    symbol date        open  high   low close    volume
##    <chr>  <date>     <dbl> <dbl> <dbl> <dbl>     <dbl>
##  1 FB     2013-01-31  29.2  31.5  28.7  31.0 190744900
##  2 FB     2013-02-28  26.8  27.3  26.3  27.2  83027800
##  3 FB     2013-03-28  26.1  26.2  25.5  25.6  28585700
##  4 FB     2013-04-30  27.1  27.8  27.0  27.8  36245700
##  5 FB     2013-05-31  24.6  25.0  24.3  24.4  35925000
##  6 FB     2013-06-28  24.7  25.0  24.4  24.9  96778900
##  7 FB     2013-07-31  38.0  38.3  36.3  36.8 154828700
##  8 FB     2013-08-30  42.0  42.3  41.1  41.3  67735100
##  9 FB     2013-09-30  50.1  51.6  49.8  50.2 100095000
## 10 FB     2013-10-31  47.2  52    46.5  50.2 248809000
## # ℹ 182 more rows
…
#Unir 
rends <- left_join(FANG_rend_mensual, base_rend_mensual, by="date")
rends

## # A tibble: 192 × 4
## # Groups:   symbol [4]
##    symbol date       monthly.returns.x monthly.returns.y
##    <chr>  <date>                 <dbl>             <dbl>
##  1 FB     2013-01-31          0.106             -0.0138 
##  2 FB     2013-02-28         -0.120              0.00782
##  3 FB     2013-03-28         -0.0613             0.0258 
##  4 FB     2013-04-30          0.0856             0.0175 
##  5 FB     2013-05-31         -0.123              0.0279 
##  6 FB     2013-06-28          0.0218            -0.0289 
##  7 FB     2013-07-31          0.479              0.0373 
##  8 FB     2013-08-30          0.122             -0.0104 
##  9 FB     2013-09-30          0.217              0.0253 
## 10 FB     2013-10-31         -0.000398           0.0502 
## # ℹ 182 more rows
…
