Capítulo 4 TidyQuant | Integración del Paquete QualityTools con Tidyverse
…
Return.clean: elimina los valores atípicos de las devoluciones.

Return.excess: elimina la tasa libre de riesgo de los rendimientos para generar rendimientos superiores a la tasa libre de riesgo.

zerofill: Se utiliza para reemplazar valores NA con ceros.

4.2 Poder Cuantitativo en Acción

Revisaremos algunos ejemplos, para ello utilizaremos la base de datos FANG, de datos que consta de los precios de las acciones de FB, AMZN, NFLX y GOOG desde principios de 2013 hasta finales del 2016.

data("FANG")
FANG

## # A tibble: 4,032 × 8
##    symbol date        open  high   low close    volume adjusted
##    <chr>  <date>     <dbl> <dbl> <dbl> <dbl>     <dbl>    <dbl>
##  1 FB     2013-01-02  27.4  28.2  27.4  28    69846400     28  
##  2 FB     2013-01-03  27.9  28.5  27.6  27.8  63140600     27.8
##  3 FB     2013-01-04  28.0  28.9  27.8  28.8  72715400     28.8
##  4 FB     2013-01-07  28.7  29.8  28.6  29.4  83781800     29.4
##  5 FB     2013-01-08  29.5  29.6  28.9  29.1  45871300     29.1
##  6 FB     2013-01-09  29.7  30.6  29.5  30.6 104787700     30.6
##  7 FB     2013-01-10  30.6  31.5  30.3  31.3  95316400     31.3
##  8 FB     2013-01-11  31.3  32.0  31.1  31.7  89598000     31.7
##  9 FB     2013-01-14  32.1  32.2  30.6  31.0  98892800     31.0
## 10 FB     2013-01-15  30.6  31.7  29.9  30.1 173242600     30.1
## # ℹ 4,022 more rows
…
4.2.2 Ejemplo 2: utilice xts to.period para cambiar la periodicidad de diaria a mensual

La función xts::to.period se utiliza para convertir la periodicidad de un nivel inferior a un nivel superior (ej: meses a años). Dado que se busca una estructura que tenga una escala de tiempo diferente a la de entrada, se debe hacer una transformación. Utilizamos tq_transmute(), pasamos las columnas “open”, “high”, “low”, “close” y “volume”, y usamos el periodo “months”.

FANG |>  group_by(symbol) |> tq_transmute(select = open:volume,
                                mutate_fun = to.period,
                                period = "months")

## # A tibble: 192 × 7
## # Groups:   symbol [4]
##    symbol date        open  high   low close    volume
##    <chr>  <date>     <dbl> <dbl> <dbl> <dbl>     <dbl>
##  1 FB     2013-01-31  29.2  31.5  28.7  31.0 190744900
##  2 FB     2013-02-28  26.8  27.3  26.3  27.2  83027800
##  3 FB     2013-03-28  26.1  26.2  25.5  25.6  28585700
##  4 FB     2013-04-30  27.1  27.8  27.0  27.8  36245700
##  5 FB     2013-05-31  24.6  25.0  24.3  24.4  35925000
##  6 FB     2013-06-28  24.7  25.0  24.4  24.9  96778900
##  7 FB     2013-07-31  38.0  38.3  36.3  36.8 154828700
##  8 FB     2013-08-30  42.0  42.3  41.1  41.3  67735100
##  9 FB     2013-09-30  50.1  51.6  49.8  50.2 100095000
## 10 FB     2013-10-31  47.2  52    46.5  50.2 248809000
## # ℹ 182 more rows
…
#Unir 
rends <- left_join(FANG_rend_mensual, base_rend_mensual, by="date")
rends

## # A tibble: 192 × 4
## # Groups:   symbol [4]
##    symbol date       monthly.returns.x monthly.returns.y
##    <chr>  <date>                 <dbl>             <dbl>
##  1 FB     2013-01-31          0.106             -0.0138 
##  2 FB     2013-02-28         -0.120              0.00782
##  3 FB     2013-03-28         -0.0613             0.0258 
##  4 FB     2013-04-30          0.0856             0.0175 
##  5 FB     2013-05-31         -0.123              0.0279 
##  6 FB     2013-06-28          0.0218            -0.0289 
##  7 FB     2013-07-31          0.479              0.0373 
##  8 FB     2013-08-30          0.122             -0.0104 
##  9 FB     2013-09-30          0.217              0.0253 
## 10 FB     2013-10-31         -0.000398           0.0503 
## # ℹ 182 more rows
…
La función MACD nos da la convergencia y divergencia de la media móvil, vemos que la salida tiene la misma periodicidad que la entrada y las funciones funcionan con las de OHLC, por lo que se puede utilizar tq_mutate()

FANG_macd <- FANG |> group_by(symbol) |> 
                     tq_mutate(select = close,
                               mutate_fun = MACD,
                               nFast = 12,
                               nSlow = 26,
                               nSig = 9,
                               maType = SMA) |> 
                     mutate(diff = macd - signal) |> 
                     select(-(open:volume))
FANG_macd

## # A tibble: 4,032 × 6
## # Groups:   symbol [4]
##    symbol date       adjusted  macd signal  diff
##    <chr>  <date>        <dbl> <dbl>  <dbl> <dbl>
##  1 FB     2013-01-02     28      NA     NA    NA
##  2 FB     2013-01-03     27.8    NA     NA    NA
##  3 FB     2013-01-04     28.8    NA     NA    NA
##  4 FB     2013-01-07     29.4    NA     NA    NA
##  5 FB     2013-01-08     29.1    NA     NA    NA
##  6 FB     2013-01-09     30.6    NA     NA    NA
##  7 FB     2013-01-10     31.3    NA     NA    NA
##  8 FB     2013-01-11     31.7    NA     NA    NA
##  9 FB     2013-01-14     31.0    NA     NA    NA
## 10 FB     2013-01-15     30.1    NA     NA    NA
## # ℹ 4,022 more rows
…
4.2.5 Ejemplo 5: utilizar xts::apply.quarterly para obtener el precio máximo y mínimo para cada trimestre

La función xts::apply.quarterly() se puede utilizar para aplicar funciones por segmentos de tiempos trimestrales. Debido a que se va a usar una escala diferente a la de entrada (diaria) se necesita la función de transmutación tq_transmute, en la cual se configura en el argumento FUN= max para obtener los precios máximos de cierre durante el trimestre y en el argumento mutate_fun se escribe la función a aplicar por segmentos.

FANG_maxtrim <- FANG |> group_by(symbol) |> 
                        tq_transmute(select = adjusted,
                                     mutate_fun = apply.quarterly,
                                     FUN = max,
                                     col_rename = "max.close") |> 
                        mutate(year.qtr = paste0(year(date), "-Q", quarter(date))) |> 
                        select(-date)
FANG_maxtrim

## # A tibble: 64 × 3
## # Groups:   symbol [4]
##    symbol max.close year.qtr
##    <chr>      <dbl> <chr>   
##  1 FB          32.5 2013-Q1 
##  2 FB          29.0 2013-Q2 
##  3 FB          51.2 2013-Q3 
##  4 FB          58.0 2013-Q4 
##  5 FB          72.0 2014-Q1 
##  6 FB          67.6 2014-Q2 
##  7 FB          79.0 2014-Q3 
##  8 FB          81.4 2014-Q4 
##  9 FB          85.3 2015-Q1 
## 10 FB          88.9 2015-Q2 
## # ℹ 54 more rows

y para obtener los precios mínimos se cambia el argumento FUN = min, además se pueden unir para obtenerlos en una misma salida:

FANG_mintrim <- FANG |> group_by(symbol) |> 
                        tq_transmute(select = adjusted,
                                     mutate_fun = apply.quarterly,
                                     FUN = min,
                                     col_rename = "min.close") |> 
                        mutate(year.qtr = paste0(year(date), "-Q", quarter(date))) |> 
                        select(-date)
FANG_trim <- left_join(FANG_maxtrim,FANG_mintrim, by=c("symbol"="symbol","year.qtr"="year.qtr"))
FANG_trim

## # A tibble: 64 × 4
## # Groups:   symbol [4]
##    symbol max.close year.qtr min.close
##    <chr>      <dbl> <chr>        <dbl>
##  1 FB          32.5 2013-Q1       25.1
##  2 FB          29.0 2013-Q2       22.9
##  3 FB          51.2 2013-Q3       24.4
##  4 FB          58.0 2013-Q4       44.8
##  5 FB          72.0 2014-Q1       53.5
##  6 FB          67.6 2014-Q2       56.1
##  7 FB          79.0 2014-Q3       62.8
##  8 FB          81.4 2014-Q4       72.6
##  9 FB          85.3 2015-Q1       74.1
## 10 FB          88.9 2015-Q2       77.5
## # ℹ 54 more rows
…
regr_fun <- function(data){
  coef(lm(MA~V,data=timetk::tk_tbl(data,silent=TRUE)))
}

y se utilizará tq_mutate() para aplicar la función de regresión creada utilizando rollapply de la siguiente forma:

rend_accion <- rend_accion |> tq_mutate(mutate_fun = rollapply,
                                              width=90,
                                              FUN=regr_fun,
                                              by.column=FALSE,
                                              col_rename = c("coef.0","coef.1"))
rend_accion

## # A tibble: 504 × 5
##    date             MA        V coef.0 coef.1
##    <date>        <dbl>    <dbl>  <dbl>  <dbl>
##  1 2015-01-02  0        0           NA     NA
##  2 2015-01-05 -0.0285  -0.0223      NA     NA
##  3 2015-01-06 -0.00216 -0.00646     NA     NA
##  4 2015-01-07  0.0154   0.0133      NA     NA
##  5 2015-01-08  0.0154   0.0133      NA     NA
##  6 2015-01-09 -0.0128  -0.0149      NA     NA
##  7 2015-01-12 -0.0129  -0.00196     NA     NA
##  8 2015-01-13  0.00228  0.00292     NA     NA
##  9 2015-01-14 -0.00108 -0.0202      NA     NA
## 10 2015-01-15 -0.0146  -0.00955     NA     NA
## # ℹ 494 more rows
…
4.2.7 Ejemplo 7: utilizar return.clean y return.excess para limpiar y calcular el exceso de rendimiento

En este ejemplo primero se calcula los rendimientos diarios utilizando periodReturn, luego se utiliza Return.clean para limpiar los valores atípico de los datos devueltos, en el que el parámetro alpha es el porcentaje de datos atípicos se va a limpiar. Por último, los rendimientos excedentes se calculan con la función Return.excess con el parámetro Rf que representa la tasa libre de riesgo.

FANG %>% group_by(symbol) %>% tq_transmute(adjusted, periodReturn, period = "daily") %>%
                              tq_transmute(daily.returns, Return.clean, alpha = 0.05) %>%
                              tq_transmute(daily.returns, Return.excess, Rf = 0.03 / 252)

## # A tibble: 4,032 × 3
## # Groups:   symbol [4]
##    symbol date       `daily.returns > Rf`
##    <chr>  <date>                    <dbl>
##  1 FB     2013-01-02            -0.000119
##  2 FB     2013-01-03            -0.00833 
##  3 FB     2013-01-04             0.0355  
##  4 FB     2013-01-07             0.0228  
##  5 FB     2013-01-08            -0.0124  
##  6 FB     2013-01-09             0.0525  
##  7 FB     2013-01-10             0.0231  
##  8 FB     2013-01-11             0.0133  
##  9 FB     2013-01-14            -0.0244  
## 10 FB     2013-01-15            -0.0276  
## # ℹ 4,022 more rows
…
